{
  "name": "{{.ProjectName}}",
  "outputfilename": "{{.BinaryName}}",
  "assetdir": "frontend/dist",
  "frontend:install": "npm install",
  "frontend:build": "npm run build -w js",
  "frontend:dev:watcher": "npm run build:watch -w js",
  "debounceMS": 2000,
  "author": {
    "name": "{{.AuthorName}}",
    "email": "{{.AuthorEmail}}"
  }
}
